<?xml version="1.0" encoding="UTF-8" standalone="no"?>
<!-- Created with Inkscape (http://www.inkscape.org/) -->

<svg
   xmlns:dc="http://purl.org/dc/elements/1.1/"
   xmlns:cc="http://creativecommons.org/ns#"
   xmlns:rdf="http://www.w3.org/1999/02/22-rdf-syntax-ns#"
   xmlns:svg="http://www.w3.org/2000/svg"
   xmlns="http://www.w3.org/2000/svg"
   xmlns:xlink="http://www.w3.org/1999/xlink"
   xmlns:sodipodi="http://sodipodi.sourceforge.net/DTD/sodipodi-0.dtd"
   xmlns:inkscape="http://www.inkscape.org/namespaces/inkscape"
   width="320.21573mm"
   height="71.480873mm"
   viewBox="0 0 320.21573 71.480873"
   version="1.1"
   id="svg8"
   inkscape:version="0.92.4 (5da689c313, 2019-01-14)"
   sodipodi:docname="cifrado-simetrico.svg">
  <defs
     id="defs2">
    <marker
       inkscape:stockid="Arrow1Send"
       orient="auto"
       refY="0"
       refX="0"
       id="marker3787"
       style="overflow:visible"
       inkscape:isstock="true">
      <path
         id="path3785"
         d="M 0,0 5,-5 -12.5,0 5,5 Z"
         style="fill:#fd9b00;fill-opacity:1;fill-rule:evenodd;stroke:#fd9b00;stroke-width:1.00000003pt;stroke-opacity:1"
         transform="matrix(-0.2,0,0,-0.2,-1.2,0)"
         inkscape:connector-curvature="0" />
    </marker>
    <marker
       inkscape:stockid="Arrow1Sstart"
       orient="auto"
       refY="0"
       refX="0"
       id="marker3729"
       style="overflow:visible"
       inkscape:isstock="true">
      <path
         id="path3727"
         d="M 0,0 5,-5 -12.5,0 5,5 Z"
         style="fill:#fd9b00;fill-opacity:1;fill-rule:evenodd;stroke:#fd9b00;stroke-width:1.00000003pt;stroke-opacity:1"
         transform="matrix(0.2,0,0,0.2,1.2,0)"
         inkscape:connector-curvature="0" />
    </marker>
    <inkscape:path-effect
       effect="bspline"
       id="path-effect3725"
       is_visible="true"
       weight="33.333333"
       steps="2"
       helper_size="0"
       apply_no_weight="true"
       apply_with_weight="true"
       only_selected="false" />
    <marker
       inkscape:stockid="Arrow2Send"
       orient="auto"
       refY="0"
       refX="0"
       id="Arrow2Send"
       style="overflow:visible"
       inkscape:isstock="true">
      <path
         id="path1356"
         style="fill:#000000;fill-opacity:1;fill-rule:evenodd;stroke:#000000;stroke-width:0.625;stroke-linejoin:round;stroke-opacity:1"
         d="M 8.7185878,4.0337352 -2.2072895,0.01601326 8.7185884,-4.0017078 c -1.7454984,2.3720609 -1.7354408,5.6174519 -6e-7,8.035443 z"
         transform="matrix(-0.3,0,0,-0.3,0.69,0)"
         inkscape:connector-curvature="0" />
    </marker>
    <marker
       inkscape:stockid="Arrow1Sstart"
       orient="auto"
       refY="0"
       refX="0"
       id="Arrow1Sstart"
       style="overflow:visible"
       inkscape:isstock="true">
      <path
         id="path1335"
         d="M 0,0 5,-5 -12.5,0 5,5 Z"
         style="fill:#000000;fill-opacity:1;fill-rule:evenodd;stroke:#000000;stroke-width:1.00000003pt;stroke-opacity:1"
         transform="matrix(0.2,0,0,0.2,1.2,0)"
         inkscape:connector-curvature="0" />
    </marker>
    <inkscape:path-effect
       effect="bspline"
       id="path-effect2738"
       is_visible="true"
       weight="33.333333"
       steps="2"
       helper_size="0"
       apply_no_weight="true"
       apply_with_weight="true"
       only_selected="false" />
    <marker
       inkscape:stockid="Arrow1Send"
       orient="auto"
       refY="0"
       refX="0"
       id="Arrow1Send"
       style="overflow:visible"
       inkscape:isstock="true">
      <path
         id="path1338"
         d="M 0,0 5,-5 -12.5,0 5,5 Z"
         style="fill:#000000;fill-opacity:1;fill-rule:evenodd;stroke:#000000;stroke-width:1.00000003pt;stroke-opacity:1"
         transform="matrix(-0.2,0,0,-0.2,-1.2,0)"
         inkscape:connector-curvature="0" />
    </marker>
    <marker
       inkscape:stockid="Arrow1Mend"
       orient="auto"
       refY="0"
       refX="0"
       id="Arrow1Mend"
       style="overflow:visible"
       inkscape:isstock="true">
      <path
         id="path1332"
         d="M 0,0 5,-5 -12.5,0 5,5 Z"
         style="fill:#000000;fill-opacity:1;fill-rule:evenodd;stroke:#000000;stroke-width:1.00000003pt;stroke-opacity:1"
         transform="matrix(-0.4,0,0,-0.4,-4,0)"
         inkscape:connector-curvature="0" />
    </marker>
    <marker
       inkscape:stockid="Arrow1Lend"
       orient="auto"
       refY="0"
       refX="0"
       id="marker1625"
       style="overflow:visible"
       inkscape:isstock="true">
      <path
         id="path1623"
         d="M 0,0 5,-5 -12.5,0 5,5 Z"
         style="fill:#000000;fill-opacity:1;fill-rule:evenodd;stroke:#000000;stroke-width:1.00000003pt;stroke-opacity:1"
         transform="matrix(-0.8,0,0,-0.8,-10,0)"
         inkscape:connector-curvature="0" />
    </marker>
    <marker
       inkscape:stockid="Arrow1Lend"
       orient="auto"
       refY="0"
       refX="0"
       id="Arrow1Lend"
       style="overflow:visible"
       inkscape:isstock="true">
      <path
         id="path1326"
         d="M 0,0 5,-5 -12.5,0 5,5 Z"
         style="fill:#000000;fill-opacity:1;fill-rule:evenodd;stroke:#000000;stroke-width:1.00000003pt;stroke-opacity:1"
         transform="matrix(-0.8,0,0,-0.8,-10,0)"
         inkscape:connector-curvature="0" />
    </marker>
    <inkscape:path-effect
       effect="bspline"
       id="path-effect1321"
       is_visible="true"
       weight="33.333333"
       steps="2"
       helper_size="0"
       apply_no_weight="true"
       apply_with_weight="true"
       only_selected="false" />
    <linearGradient
       id="grey_gradient"
       gradientTransform="scale(0.87745848,1.1396551)"
       x1="26.639666"
       y1="9.8591232"
       x2="119.23698"
       y2="9.8591232"
       gradientUnits="userSpaceOnUse">
      <stop
         offset="0"
         style="stop-color:#dbdbdb"
         id="stop3630-72-7" />
      <stop
         offset="1"
         style="stop-color:#757575"
         id="stop3632-7-2" />
    </linearGradient>
    <linearGradient
       inkscape:collect="always"
       x1="-370.57999"
       y1="162.94"
       x2="69.418999"
       gradientUnits="userSpaceOnUse"
       y2="76.644997"
       id="linearGradient3461">
      <stop
         offset="0"
         style="stop-color:#fffa17"
         id="stop3457" />
      <stop
         offset="1"
         style="stop-color:#9c9c00"
         id="stop3459" />
    </linearGradient>
    <linearGradient
       inkscape:collect="always"
       xlink:href="#linearGradient3461"
       id="linearGradient1021"
       gradientUnits="userSpaceOnUse"
       gradientTransform="matrix(0.23216089,0,0,0.30153374,82.944729,115.01138)"
       x1="26.639666"
       y1="9.8591232"
       x2="119.23698"
       y2="9.8591232" />
    <linearGradient
       id="linearGradient3057">
      <stop
         offset="0"
         style="stop-color:#282828"
         id="stop3059" />
      <stop
         offset="1"
         style="stop-color:#282828;stop-opacity:0"
         id="stop3061" />
    </linearGradient>
    <linearGradient
       id="linearGradient2834">
      <stop
         offset="0"
         style="stop-color:#e59a00"
         id="stop2836" />
      <stop
         offset="1"
         style="stop-color:#faff7d;stop-opacity:.18367"
         id="stop2838" />
    </linearGradient>
    <linearGradient
       id="linearGradient2780">
      <stop
         offset="0"
         style="stop-color:#ffffff"
         id="stop2782" />
      <stop
         offset="1"
         style="stop-color:#ffffff;stop-opacity:0"
         id="stop2784" />
    </linearGradient>
    <linearGradient
       id="linearGradient2713">
      <stop
         offset="0"
         style="stop-color:#000000"
         id="stop2715" />
      <stop
         offset="1"
         style="stop-color:#ffffff"
         id="stop2717" />
    </linearGradient>
    <radialGradient
       inkscape:collect="always"
       r="15.157"
       gradientTransform="matrix(0.43334,0,0,1.435,6.4099,-0.11314)"
       cx="20.361"
       cy="22.546"
       gradientUnits="userSpaceOnUse"
       xlink:href="#linearGradient2780"
       id="radialGradient3114" />
    <radialGradient
       inkscape:collect="always"
       r="15.157"
       gradientTransform="matrix(0.50007,0,0,1.6752,5.003,-5.1081)"
       cx="20.361"
       cy="22.546"
       gradientUnits="userSpaceOnUse"
       xlink:href="#linearGradient2780"
       id="radialGradient3116" />
    <radialGradient
       inkscape:collect="always"
       r="15.157"
       gradientTransform="matrix(0.6214,0,0,1.8821,2.3888,-9.4094)"
       cx="20.361"
       cy="22.546"
       gradientUnits="userSpaceOnUse"
       xlink:href="#linearGradient2780"
       id="radialGradient3118" />
    <linearGradient
       inkscape:collect="always"
       x1="26.974001"
       y1="68.68"
       gradientTransform="matrix(2.1361,0,0,1.826,2.3487,-1.0128)"
       x2="26.974001"
       gradientUnits="userSpaceOnUse"
       xlink:href="#linearGradient2780"
       y2="44.980999"
       id="linearGradient3130" />
    <linearGradient
       inkscape:collect="always"
       x1="17.681999"
       y1="60.433998"
       gradientTransform="matrix(2.2188,0,0,1.826,-0.051304,-1.0128)"
       x2="17.424999"
       gradientUnits="userSpaceOnUse"
       spreadMethod="reflect"
       xlink:href="#linearGradient2713"
       y2="62.779999"
       id="linearGradient3142" />
    <linearGradient
       inkscape:collect="always"
       x1="24.261"
       y1="44.011002"
       gradientTransform="matrix(2.2188,0,0,1.826,-0.051304,-1.0128)"
       x2="24.606001"
       gradientUnits="userSpaceOnUse"
       spreadMethod="reflect"
       xlink:href="#linearGradient2713"
       y2="45.888"
       id="linearGradient3145" />
    <linearGradient
       inkscape:collect="always"
       x1="29.094"
       y1="46.356998"
       gradientTransform="matrix(2.2188,0,0,1.826,-0.051304,-1.0128)"
       x2="29.094"
       gradientUnits="userSpaceOnUse"
       spreadMethod="reflect"
       xlink:href="#linearGradient2713"
       y2="47.296001"
       id="linearGradient3148" />
    <linearGradient
       inkscape:collect="always"
       x1="29.614"
       y1="52.609001"
       gradientTransform="matrix(2.1518,0,0,1.7708,-0.051304,4.3518)"
       x2="44.723999"
       gradientUnits="userSpaceOnUse"
       spreadMethod="reflect"
       y2="52.609001"
       id="linearGradient3151">
      <stop
         offset="0"
         style="stop-color:#db9300"
         id="stop2703" />
      <stop
         offset=".75"
         style="stop-color:#fac700"
         id="stop2770" />
      <stop
         offset="1"
         style="stop-color:#fff363"
         id="stop2705" />
    </linearGradient>
    <radialGradient
       inkscape:collect="always"
       r="7.4833002"
       gradientTransform="matrix(7.5313,0,0,0.53795,3.9743,-2.0257)"
       cx="8.0178003"
       cy="231.98"
       gradientUnits="userSpaceOnUse"
       xlink:href="#linearGradient3057"
       id="radialGradient4946" />
    <radialGradient
       inkscape:collect="always"
       r="7.4833002"
       gradientTransform="matrix(7.5313,0,0,0.67244,3.9743,-34.231)"
       cx="8.0178003"
       cy="231.98"
       gradientUnits="userSpaceOnUse"
       xlink:href="#linearGradient3057"
       id="radialGradient4949" />
    <radialGradient
       inkscape:collect="always"
       r="7.4833002"
       gradientTransform="matrix(7.5313,0,0,0.53795,3.9743,-0.012826)"
       cx="8.0178003"
       cy="231.98"
       gradientUnits="userSpaceOnUse"
       xlink:href="#linearGradient3057"
       id="radialGradient4952" />
    <radialGradient
       inkscape:collect="always"
       r="6.0679002"
       gradientTransform="matrix(-2.8463,0,0,2.0879,139.53,-3.5862)"
       cx="21.594999"
       cy="8.9813995"
       gradientUnits="userSpaceOnUse"
       xlink:href="#linearGradient2834"
       id="radialGradient4955" />
    <radialGradient
       inkscape:collect="always"
       r="6.0679002"
       gradientTransform="matrix(3.085,0,0,2.0529,-15.985,-3.1493)"
       cx="21.594999"
       cy="8.9813995"
       gradientUnits="userSpaceOnUse"
       xlink:href="#linearGradient2834"
       id="radialGradient4958" />
    <linearGradient
       inkscape:collect="always"
       x1="33.183998"
       y1="24.385"
       gradientTransform="matrix(2.1611,0,0,1.8045,-0.051304,2.2671)"
       x2="33.183998"
       gradientUnits="userSpaceOnUse"
       xlink:href="#linearGradient2780"
       y2="-13.17"
       id="linearGradient4965" />
    <linearGradient
       inkscape:collect="always"
       x1="33.183998"
       y1="24.385"
       gradientTransform="matrix(2.2102,0,0,1.9643,-1.5159,-2.1713)"
       x2="33.183998"
       gradientUnits="userSpaceOnUse"
       xlink:href="#linearGradient2780"
       y2="-13.17"
       id="linearGradient4968" />
    <linearGradient
       inkscape:collect="always"
       x1="38.782001"
       y1="9.5746002"
       gradientTransform="matrix(1.632,0,0,2.4825,-0.051304,-0.012826)"
       x2="38.782001"
       gradientUnits="userSpaceOnUse"
       xlink:href="#linearGradient2780"
       y2="7.5862999"
       id="linearGradient4971" />
    <radialGradient
       inkscape:collect="always"
       r="6.0679002"
       gradientTransform="matrix(-2.3666,0,0,1.7265,129.12,-0.11292)"
       cx="21.594999"
       cy="8.9813995"
       gradientUnits="userSpaceOnUse"
       xlink:href="#linearGradient2834"
       id="radialGradient4974" />
    <radialGradient
       inkscape:collect="always"
       r="6.0679002"
       gradientTransform="matrix(2.3666,0,0,1.7265,-0.40436,-0.012826)"
       cx="21.594999"
       cy="8.9813995"
       gradientUnits="userSpaceOnUse"
       xlink:href="#linearGradient2834"
       id="radialGradient4977" />
    <linearGradient
       inkscape:collect="always"
       x1="38.362999"
       y1="11.17"
       gradientTransform="matrix(1.6375,0,0,2.4742,-0.051304,-0.012826)"
       x2="39.723999"
       gradientUnits="userSpaceOnUse"
       xlink:href="#linearGradient2780"
       y2="6.0918002"
       id="linearGradient4980" />
    <linearGradient
       inkscape:collect="always"
       x1="35.995998"
       y1="1.6246001"
       gradientTransform="matrix(1.632,0,0,2.4361,-0.051304,2.0097)"
       x2="35.995998"
       gradientUnits="userSpaceOnUse"
       xlink:href="#linearGradient2780"
       y2="11.711"
       id="linearGradient4983" />
    <radialGradient
       inkscape:collect="always"
       xlink:href="#linearGradient2780"
       id="radialGradient1304"
       gradientUnits="userSpaceOnUse"
       gradientTransform="matrix(0.43334,0,0,1.435,6.4099,-0.11314)"
       cx="20.361"
       cy="22.546"
       r="15.157" />
    <radialGradient
       inkscape:collect="always"
       xlink:href="#linearGradient2780"
       id="radialGradient1306"
       gradientUnits="userSpaceOnUse"
       gradientTransform="matrix(0.50007,0,0,1.6752,5.003,-5.1081)"
       cx="20.361"
       cy="22.546"
       r="15.157" />
    <radialGradient
       inkscape:collect="always"
       xlink:href="#linearGradient2780"
       id="radialGradient1308"
       gradientUnits="userSpaceOnUse"
       gradientTransform="matrix(0.6214,0,0,1.8821,2.3888,-9.4094)"
       cx="20.361"
       cy="22.546"
       r="15.157" />
    <linearGradient
       inkscape:collect="always"
       xlink:href="#linearGradient3461"
       id="linearGradient1317"
       gradientUnits="userSpaceOnUse"
       x1="-370.57999"
       y1="162.94"
       x2="69.418999"
       y2="76.644997" />
    <linearGradient
       inkscape:collect="always"
       x1="35.995998"
       y1="1.6246001"
       gradientTransform="matrix(1.632,0,0,2.4361,-0.051304,2.0097)"
       x2="35.995998"
       gradientUnits="userSpaceOnUse"
       xlink:href="#linearGradient2780"
       y2="11.711"
       id="linearGradient4983-0" />
    <linearGradient
       inkscape:collect="always"
       x1="38.362999"
       y1="11.17"
       gradientTransform="matrix(1.6375,0,0,2.4742,-0.051304,-0.012826)"
       x2="39.723999"
       gradientUnits="userSpaceOnUse"
       xlink:href="#linearGradient2780"
       y2="6.0918002"
       id="linearGradient4980-6" />
    <radialGradient
       inkscape:collect="always"
       r="6.0679002"
       gradientTransform="matrix(2.3666,0,0,1.7265,-0.40436,-0.012826)"
       cx="21.594999"
       cy="8.9813995"
       gradientUnits="userSpaceOnUse"
       xlink:href="#linearGradient2834"
       id="radialGradient4977-1" />
    <radialGradient
       inkscape:collect="always"
       r="6.0679002"
       gradientTransform="matrix(-2.3666,0,0,1.7265,129.12,-0.11292)"
       cx="21.594999"
       cy="8.9813995"
       gradientUnits="userSpaceOnUse"
       xlink:href="#linearGradient2834"
       id="radialGradient4974-9" />
    <linearGradient
       inkscape:collect="always"
       x1="38.782001"
       y1="9.5746002"
       gradientTransform="matrix(1.632,0,0,2.4825,-0.051304,-0.012826)"
       x2="38.782001"
       gradientUnits="userSpaceOnUse"
       xlink:href="#linearGradient2780"
       y2="7.5862999"
       id="linearGradient4971-2" />
    <linearGradient
       inkscape:collect="always"
       x1="33.183998"
       y1="24.385"
       gradientTransform="matrix(2.2102,0,0,1.9643,-1.5159,-2.1713)"
       x2="33.183998"
       gradientUnits="userSpaceOnUse"
       xlink:href="#linearGradient2780"
       y2="-13.17"
       id="linearGradient4968-0" />
    <linearGradient
       inkscape:collect="always"
       x1="33.183998"
       y1="24.385"
       gradientTransform="matrix(2.1611,0,0,1.8045,-0.051304,2.2671)"
       x2="33.183998"
       gradientUnits="userSpaceOnUse"
       xlink:href="#linearGradient2780"
       y2="-13.17"
       id="linearGradient4965-2" />
    <radialGradient
       inkscape:collect="always"
       r="6.0679002"
       gradientTransform="matrix(3.085,0,0,2.0529,-15.985,-3.1493)"
       cx="21.594999"
       cy="8.9813995"
       gradientUnits="userSpaceOnUse"
       xlink:href="#linearGradient2834"
       id="radialGradient4958-3" />
    <radialGradient
       inkscape:collect="always"
       r="6.0679002"
       gradientTransform="matrix(-2.8463,0,0,2.0879,139.53,-3.5862)"
       cx="21.594999"
       cy="8.9813995"
       gradientUnits="userSpaceOnUse"
       xlink:href="#linearGradient2834"
       id="radialGradient4955-7" />
    <radialGradient
       inkscape:collect="always"
       r="7.4833002"
       gradientTransform="matrix(7.5313,0,0,0.53795,3.9743,-0.012826)"
       cx="8.0178003"
       cy="231.98"
       gradientUnits="userSpaceOnUse"
       xlink:href="#linearGradient3057"
       id="radialGradient4952-5" />
    <radialGradient
       inkscape:collect="always"
       r="7.4833002"
       gradientTransform="matrix(7.5313,0,0,0.67244,3.9743,-34.231)"
       cx="8.0178003"
       cy="231.98"
       gradientUnits="userSpaceOnUse"
       xlink:href="#linearGradient3057"
       id="radialGradient4949-2" />
    <radialGradient
       inkscape:collect="always"
       r="7.4833002"
       gradientTransform="matrix(7.5313,0,0,0.53795,3.9743,-2.0257)"
       cx="8.0178003"
       cy="231.98"
       gradientUnits="userSpaceOnUse"
       xlink:href="#linearGradient3057"
       id="radialGradient4946-8" />
    <linearGradient
       inkscape:collect="always"
       x1="29.614"
       y1="52.609001"
       gradientTransform="matrix(2.1518,0,0,1.7708,-0.051304,4.3518)"
       x2="44.723999"
       gradientUnits="userSpaceOnUse"
       spreadMethod="reflect"
       y2="52.609001"
       id="linearGradient3151-9">
      <stop
         offset="0"
         style="stop-color:#db9300"
         id="stop2703-7" />
      <stop
         offset=".75"
         style="stop-color:#fac700"
         id="stop2770-3" />
      <stop
         offset="1"
         style="stop-color:#fff363"
         id="stop2705-6" />
    </linearGradient>
    <linearGradient
       inkscape:collect="always"
       x1="29.094"
       y1="46.356998"
       gradientTransform="matrix(2.2188,0,0,1.826,-0.051304,-1.0128)"
       x2="29.094"
       gradientUnits="userSpaceOnUse"
       spreadMethod="reflect"
       xlink:href="#linearGradient2713"
       y2="47.296001"
       id="linearGradient3148-1" />
    <linearGradient
       inkscape:collect="always"
       x1="24.261"
       y1="44.011002"
       gradientTransform="matrix(2.2188,0,0,1.826,-0.051304,-1.0128)"
       x2="24.606001"
       gradientUnits="userSpaceOnUse"
       spreadMethod="reflect"
       xlink:href="#linearGradient2713"
       y2="45.888"
       id="linearGradient3145-3" />
    <linearGradient
       inkscape:collect="always"
       x1="17.681999"
       y1="60.433998"
       gradientTransform="matrix(2.2188,0,0,1.826,-0.051304,-1.0128)"
       x2="17.424999"
       gradientUnits="userSpaceOnUse"
       spreadMethod="reflect"
       xlink:href="#linearGradient2713"
       y2="62.779999"
       id="linearGradient3142-1" />
    <radialGradient
       inkscape:collect="always"
       xlink:href="#linearGradient2780"
       id="radialGradient1304-9"
       gradientUnits="userSpaceOnUse"
       gradientTransform="matrix(0.43334,0,0,1.435,6.4099,-0.11314)"
       cx="20.361"
       cy="22.546"
       r="15.157" />
    <radialGradient
       inkscape:collect="always"
       xlink:href="#linearGradient2780"
       id="radialGradient1306-4"
       gradientUnits="userSpaceOnUse"
       gradientTransform="matrix(0.50007,0,0,1.6752,5.003,-5.1081)"
       cx="20.361"
       cy="22.546"
       r="15.157" />
    <radialGradient
       inkscape:collect="always"
       xlink:href="#linearGradient2780"
       id="radialGradient1308-7"
       gradientUnits="userSpaceOnUse"
       gradientTransform="matrix(0.6214,0,0,1.8821,2.3888,-9.4094)"
       cx="20.361"
       cy="22.546"
       r="15.157" />
    <radialGradient
       inkscape:collect="always"
       r="15.157"
       gradientTransform="matrix(0.43334,0,0,1.435,6.4099,-0.11314)"
       cx="20.361"
       cy="22.546"
       gradientUnits="userSpaceOnUse"
       xlink:href="#linearGradient2780"
       id="radialGradient3114-8" />
    <radialGradient
       inkscape:collect="always"
       r="15.157"
       gradientTransform="matrix(0.50007,0,0,1.6752,5.003,-5.1081)"
       cx="20.361"
       cy="22.546"
       gradientUnits="userSpaceOnUse"
       xlink:href="#linearGradient2780"
       id="radialGradient3116-4" />
    <radialGradient
       inkscape:collect="always"
       r="15.157"
       gradientTransform="matrix(0.6214,0,0,1.8821,2.3888,-9.4094)"
       cx="20.361"
       cy="22.546"
       gradientUnits="userSpaceOnUse"
       xlink:href="#linearGradient2780"
       id="radialGradient3118-5" />
    <linearGradient
       inkscape:collect="always"
       x1="26.974001"
       y1="68.68"
       gradientTransform="matrix(2.1361,0,0,1.826,2.3487,-1.0128)"
       x2="26.974001"
       gradientUnits="userSpaceOnUse"
       xlink:href="#linearGradient2780"
       y2="44.980999"
       id="linearGradient3130-0" />
    <linearGradient
       inkscape:collect="always"
       xlink:href="#linearGradient3461"
       id="linearGradient2229"
       gradientUnits="userSpaceOnUse"
       gradientTransform="matrix(0.23216089,0,0,0.30153374,82.944729,115.01138)"
       x1="26.639666"
       y1="9.8591232"
       x2="119.23698"
       y2="9.8591232" />
    <linearGradient
       inkscape:collect="always"
       xlink:href="#linearGradient3461-9"
       id="linearGradient1317-8"
       gradientUnits="userSpaceOnUse"
       x1="-370.57999"
       y1="162.94"
       x2="69.418999"
       y2="76.644997" />
    <linearGradient
       inkscape:collect="always"
       x1="-370.57999"
       y1="162.94"
       x2="69.418999"
       gradientUnits="userSpaceOnUse"
       y2="76.644997"
       id="linearGradient3461-9">
      <stop
         offset="0"
         style="stop-color:#fffa17"
         id="stop3457-2" />
      <stop
         offset="1"
         style="stop-color:#9c9c00"
         id="stop3459-6" />
    </linearGradient>
    <linearGradient
       inkscape:collect="always"
       xlink:href="#grey_gradient"
       id="linearGradient2339"
       gradientUnits="userSpaceOnUse"
       gradientTransform="scale(0.87745848,1.1396551)"
       x1="26.639666"
       y1="9.8591232"
       x2="119.23698"
       y2="9.8591232" />
    <linearGradient
       inkscape:collect="always"
       xlink:href="#grey_gradient"
       id="linearGradient2341"
       gradientUnits="userSpaceOnUse"
       gradientTransform="scale(0.87745848,1.1396551)"
       x1="26.639666"
       y1="9.8591232"
       x2="119.23698"
       y2="9.8591232" />
    <marker
       inkscape:stockid="Arrow1Sstart"
       orient="auto"
       refY="0"
       refX="0"
       id="marker3729-7"
       style="overflow:visible"
       inkscape:isstock="true">
      <path
         inkscape:connector-curvature="0"
         id="path3727-1"
         d="M 0,0 5,-5 -12.5,0 5,5 Z"
         style="fill:#0500ff;fill-opacity:1;fill-rule:evenodd;stroke:#0500ff;stroke-width:1.00000003pt;stroke-opacity:1"
         transform="matrix(0.2,0,0,0.2,1.2,0)" />
    </marker>
    <marker
       inkscape:stockid="Arrow1Send"
       orient="auto"
       refY="0"
       refX="0"
       id="marker3787-1"
       style="overflow:visible"
       inkscape:isstock="true">
      <path
         inkscape:connector-curvature="0"
         id="path3785-5"
         d="M 0,0 5,-5 -12.5,0 5,5 Z"
         style="fill:#0500ff;fill-opacity:1;fill-rule:evenodd;stroke:#0500ff;stroke-width:1.00000003pt;stroke-opacity:1"
         transform="matrix(-0.2,0,0,-0.2,-1.2,0)" />
    </marker>
    <inkscape:path-effect
       effect="bspline"
       id="path-effect3725-9"
       is_visible="true"
       weight="33.333333"
       steps="2"
       helper_size="0"
       apply_no_weight="true"
       apply_with_weight="true"
       only_selected="false" />
  </defs>
  <sodipodi:namedview
     id="base"
     pagecolor="#ffffff"
     bordercolor="#666666"
     borderopacity="1.0"
     inkscape:pageopacity="0.0"
     inkscape:pageshadow="2"
     inkscape:zoom="0.87684003"
     inkscape:cx="706.41181"
     inkscape:cy="-12.353163"
     inkscape:document-units="mm"
     inkscape:current-layer="layer1"
     showgrid="false"
     fit-margin-top="0"
     fit-margin-left="0"
     fit-margin-right="0"
     fit-margin-bottom="0"
     inkscape:window-width="1920"
     inkscape:window-height="1062"
     inkscape:window-x="0"
     inkscape:window-y="0"
     inkscape:window-maximized="1" />
  <metadata
     id="metadata5">
    <rdf:RDF>
      <cc:Work
         rdf:about="">
        <dc:format>image/svg+xml</dc:format>
        <dc:type
           rdf:resource="http://purl.org/dc/dcmitype/StillImage" />
        <dc:title></dc:title>
      </cc:Work>
    </rdf:RDF>
  </metadata>
  <g
     inkscape:label="Capa 1"
     inkscape:groupmode="layer"
     id="layer1"
     transform="translate(38.220715,-78.260686)">
    <g
       id="g6663">
      <g
         transform="matrix(0.26458333,0,0,0.26458333,-38.220715,114.51423)"
         id="g895">
        <rect
           id="rect3872"
           style="color:#000000;opacity:0;stroke-width:0.96359998"
           rx="0"
           ry="0"
           height="128"
           width="128"
           y="0"
           x="0" />
        <path
           inkscape:connector-curvature="0"
           id="rect3034"
           style="color:#000000;fill:url(#linearGradient2341)"
           d="m 29.094,11.236 c -3.1838,0 -5.7188,2.5662 -5.7188,5.75 v 94.029 c 0,3.1838 2.5349,5.75 5.7188,5.75 h 69.812 c 3.1838,0 5.7188,-2.5662 5.7188,-5.75 V 40.361 h -21.031 c -4.3061,0 -8.0625,-3.1411 -8.0625,-7.3125 v -21.812 z m 50.438,0 v 21.812 c 0,1.7141 1.632,3.3125 4.0625,3.3125 h 21.031 z" />
        <rect
           id="rect2987"
           style="color:#000000;fill:#4d4d4d"
           rx="1.7673"
           ry="1.7673"
           height="6.1854"
           width="38.026001"
           y="36.396999"
           x="34.157001" />
        <rect
           id="rect2999"
           style="color:#000000;fill:#4d4d4d"
           rx="1.7673"
           ry="1.7673"
           height="6.1854"
           width="59.686001"
           y="65.225998"
           x="34.157001" />
        <rect
           id="rect3001"
           style="color:#000000;fill:#4d4d4d"
           rx="1.7673"
           ry="1.7673"
           height="6.1854"
           width="38.026001"
           y="50.811001"
           x="34.157001" />
        <rect
           id="rect3003"
           style="color:#000000;fill:#4d4d4d"
           rx="1.7673"
           ry="1.7673"
           height="6.1854"
           width="59.686001"
           y="79.639999"
           x="34.157001" />
        <rect
           id="rect3005"
           style="color:#000000;fill:#4d4d4d"
           rx="1.7673"
           ry="1.7673"
           height="6.1854"
           width="59.686001"
           y="94.054001"
           x="34.157001" />
      </g>
      <g
         id="layer1-6"
         inkscape:label="Layer 1"
         transform="matrix(-0.03446582,0.03383736,-0.03383736,-0.03446582,27.587753,132.49012)">
        <g
           id="g3463"
           transform="translate(567.46,330)">
          <path
             inkscape:connector-curvature="0"
             id="path3439"
             style="fill:url(#linearGradient1317);stroke:#000000;stroke-width:8.38560009;stroke-miterlimit:10"
             d="m -374.29,-94.027 c -95,0 -172.1,76.484 -172.1,170.69 0,94.197 77.1,170.66 172.1,170.66 83.89,0 153.8,-59.65 169,-138.47 l 2.96,-0.03 28.32,-25.222 51.56,23.942 23.093,-25.192 33.312,26.782 c 15.735,-6.19 38.207,4.13 47.813,-2.06 l 19.344,-25.534 46.093,23.374 61.755,-0.97 33.78,-43.779 17.31,-68.875 -383.88,2.531 c -29.39,-52.38 -85.78,-87.844 -150.46,-87.844 z m -97.41,125.81 c 22.08,0 40,16.653 40,37.156 0,20.503 -17.92,37.128 -40,37.128 -22.08,0 -40,-16.625 -40,-37.128 0,-20.503 17.92,-37.156 40,-37.156 z" />
          <rect
             id="rect3441"
             style="fill:#333333;stroke:#000000;stroke-width:7.62750006;stroke-miterlimit:10"
             height="20.042"
             width="325.60999"
             y="12.467"
             x="-196.55" />
          <path
             inkscape:connector-curvature="0"
             id="path3443"
             style="opacity:0.49751;fill:#ffffff"
             d="m -373.46,-91.626 c -91.47,0 -165.71,74.851 -165.71,167.06 0,5.826 0.32,11.551 0.9,17.221 8.57,-84.118 79.12,-149.81 164.81,-149.81 85.7,-0.002 156.28,65.692 164.85,149.81 0.58,-5.67 0.87,-11.395 0.87,-17.218 0,-23.976 -5.02,-46.79 -14.06,-67.407 l 372.63,4e-4 v -10.219 l -377.54,3e-4 c -27.74,-53.153 -83.06,-89.438 -146.75,-89.438 z" />
          <path
             inkscape:connector-curvature="0"
             id="path3445"
             sodipodi:nodetypes="cssscsssc"
             style="fill:#808000"
             d="m -448.76,43.787 c 5.59,5.126 9.04,12.094 9.04,19.791 0,15.716 -14.36,28.487 -32.03,28.487 -17.67,0 -32,-12.771 -32,-28.487 0,-6.125 1.82,-12.292 5.53,-16.938 -6.14,5.812 -9.56,14.119 -9.56,22.718 0,17.926 16.37,32.482 36.52,32.482 20.16,0 36.52,-14.556 36.52,-32.482 0,-10.375 -5.5,-19.624 -14.02,-25.571 z" />
        </g>
      </g>
      <g
         transform="translate(-57.15003,2.713664)"
         id="text974"
         style="font-style:normal;font-variant:normal;font-weight:normal;font-stretch:normal;font-size:3.26319432px;line-height:1.25;font-family:sans-serif;-inkscape-font-specification:sans-serif;letter-spacing:0px;word-spacing:0px;fill:#000000;fill-opacity:1;stroke:none;stroke-width:0.26458332"
         aria-label="+">
        <path
           inkscape:connector-curvature="0"
           id="path976"
           style="font-size:28.22222137px;stroke-width:0.24916893"
           d="m 56.854065,129.58653 h -5.533457 v 5.6966 h -2.521403 v -5.6966 h -5.547087 v -2.15013 h 5.547087 v -5.25174 h 2.521403 v 5.25174 h 5.533457 z" />
      </g>
      <rect
         x="82.944733"
         y="114.51423"
         width="33.866665"
         height="33.866665"
         ry="0"
         rx="0"
         style="color:#000000;opacity:0;stroke-width:0.25495249"
         id="rect3872-5" />
      <g
         transform="translate(-59.266698,-0.79903244)"
         id="g1811">
        <g
           id="g1044"
           transform="translate(0.06988431,0.30174641)">
          <path
             d="m 90.642516,117.98424 c -0.84238,0 -1.513099,0.67897 -1.513099,1.52135 v 24.87851 c 0,0.84238 0.670693,1.52135 1.513099,1.52135 h 18.471094 c 0.84238,0 1.5131,-0.67897 1.5131,-1.52135 v -18.69387 h -5.56446 c -1.13932,0 -2.1332,-0.83108 -2.1332,-1.93477 v -5.77109 z m 13.345054,0 v 5.77109 c 0,0.45352 0.4318,0.87643 1.07487,0.87643 h 5.56445 z"
             style="color:#000000;fill:url(#linearGradient1021);stroke-width:0.26458332"
             id="rect3034-6"
             inkscape:connector-curvature="0" />
          <rect
             x="91.982101"
             y="124.64142"
             width="10.061046"
             height="1.6365538"
             ry="0.46759811"
             rx="0.46759811"
             style="color:#000000;fill:#e3e300;fill-opacity:1;stroke-width:0.26458332"
             id="rect2987-2" />
          <rect
             x="91.982101"
             y="132.26909"
             width="15.791921"
             height="1.6365538"
             ry="0.46759811"
             rx="0.46759811"
             style="color:#000000;fill:#e3e300;fill-opacity:1;stroke-width:0.26458332"
             id="rect2999-9" />
          <rect
             x="91.982101"
             y="128.45512"
             width="10.061046"
             height="1.6365538"
             ry="0.46759811"
             rx="0.46759811"
             style="color:#000000;fill:#e3e300;fill-opacity:1;stroke-width:0.26458332"
             id="rect3001-1" />
          <rect
             x="91.982101"
             y="136.08279"
             width="15.791921"
             height="1.6365538"
             ry="0.46759811"
             rx="0.46759811"
             style="color:#000000;fill:#e3e300;fill-opacity:1;stroke-width:0.26458332"
             id="rect3003-2" />
          <rect
             x="91.982101"
             y="139.8965"
             width="15.791921"
             height="1.6365538"
             ry="0.46759811"
             rx="0.46759811"
             style="color:#000000;fill:#e3e300;fill-opacity:1;stroke-width:0.26458332"
             id="rect3005-7" />
        </g>
        <g
           id="g5908"
           transform="matrix(0.12504944,0.02867483,-0.02867483,0.12504944,101.27549,126.09861)">
          <g
             id="g5889">
            <path
               d="M 64.359,2 C 44.287,2 28.128,18.159 28.128,38.231 V 78.487 H 38.192 V 38.231 c 0,-14.497 11.671,-26.167 26.167,-26.167 14.496,0 26.167,11.67 26.167,26.167 V 78.487 H 100.59 V 38.231 C 100.59,18.159 84.431,2 64.359,2 Z"
               style="fill:#282828;fill-rule:evenodd"
               id="rect2723"
               inkscape:connector-curvature="0" />
            <path
               d="m 64.359,4.6293 c -18.957,0 -34.218,16.307 -34.218,34.909 v 37.528 c 0,14.09 8.776,26.054 21.261,31.044 -8.945,-4.07 -15.222,-12.796 -15.222,-23.143 v -47.404 c 0,-14.225 11.67,-26.621 26.166,-26.621 h 4.026 c 14.496,0 26.167,12.396 26.167,26.621 v 47.404 c 0,10.347 -6.277,19.073 -15.222,23.143 12.484,-4.99 21.26,-16.954 21.26,-31.044 v -37.528 c 0,-18.602 -15.261,-34.909 -34.218,-34.909 z"
               style="opacity:0.65;fill:url(#linearGradient4983);fill-rule:evenodd"
               id="path3082"
               inkscape:connector-curvature="0" />
            <path
               d="m 64.359,2.8539 c -19.51,0 -35.217,15.601 -35.217,34.98 v 39.095 c 0,14.677 9.033,27.141 21.881,32.341 -9.206,-4.24 -15.666,-13.332 -15.666,-24.11 v -49.384 c 0,-14.819 12.011,-29.082 26.931,-29.082 l 4.143,-10e-5 c 14.919,0 26.93,14.263 26.93,29.082 v 49.384 c 0,10.778 -6.46,19.87 -15.666,24.11 12.848,-5.2 21.881,-17.664 21.881,-32.341 v -39.095 c 0,-19.379 -15.707,-34.98 -35.217,-34.98 z"
               style="opacity:0.5;fill:url(#linearGradient4980);fill-rule:evenodd"
               id="path2931"
               inkscape:connector-curvature="0" />
            <path
               d="m 49.471,12.003 c -5.439,3.405 -8.499,9.21 -7.9,11.145 0.646,2.085 4.467,-7.233 15.283,-10.119 8.341,-2.225 0,-5.6488 -7.383,-1.026 z"
               style="opacity:0.8;fill:url(#radialGradient4977);fill-rule:evenodd"
               id="path2861"
               inkscape:connector-curvature="0" />
            <path
               d="m 79.248,11.903 c 5.438,3.405 8.498,9.21 7.899,11.145 -0.646,2.085 -4.467,-7.233 -15.283,-10.119 -8.341,-2.225 0,-5.6489 7.384,-1.026 z"
               style="opacity:0.8;fill:url(#radialGradient4974);fill-rule:evenodd"
               id="path2871"
               inkscape:connector-curvature="0" />
            <path
               d="m 64.359,6.2794 c -18.957,0 -34.218,12.995 -34.218,31.952 v 38.244 c 0,14.357 8.776,26.545 21.261,31.635 -8.945,-4.15 -15.222,-13.04 -15.222,-23.584 v -48.308 c 0,-14.496 11.67,-26.182 26.166,-26.182 h 4.026 c 14.496,0 26.167,11.686 26.167,26.182 v 48.308 c 0,10.544 -6.277,19.434 -15.222,23.584 12.484,-5.09 21.26,-17.278 21.26,-31.635 v -38.244 c 0,-18.957 -15.261,-31.952 -34.218,-31.952 z"
               style="opacity:0.5;fill:url(#linearGradient4971);fill-rule:evenodd"
               id="rect2875"
               inkscape:connector-curvature="0" />
            <path
               d="m 64.359,4.0389 c -26.762,0 -32.937,23.315 -32.937,33.86 0,31.634 2.058,31.634 2.058,0 0,-23.199 16.463,-32.355 30.879,-32.355 14.416,2e-4 30.879,10.103 30.879,32.355 0,31.634 2.059,31.634 2.059,0 0,-10.545 -6.176,-33.86 -32.938,-33.86 z"
               style="opacity:0.8;fill:url(#linearGradient4968);fill-rule:evenodd"
               id="path2933"
               inkscape:connector-curvature="0" />
            <path
               d="m 64.359,7.0913 c -26.167,0 -32.205,22.3 -32.205,31.988 0,29.062 2.013,29.062 2.013,0 0,-21.312 16.096,-30.605 30.192,-30.605 14.096,2e-4 30.193,10.162 30.193,30.605 0,29.062 2.012,29.062 2.012,0 0,-9.688 -6.038,-31.988 -32.205,-31.988 z"
               style="opacity:0.6;fill:url(#linearGradient4965);fill-rule:evenodd"
               id="path2885"
               inkscape:connector-curvature="0" />
            <path
               d="m 36.98,16.488 c -2.876,5.248 3.027,1.931 4.398,0.273 C 45.232,12.102 51.745,8.7251 57.463,7.6228 62.257,6.6985 62.988,4.8471 59.04,4.5407 51.168,3.9296 39.736,11.456 36.98,16.4877 Z"
               style="opacity:0.8;fill:#ffffff;fill-rule:evenodd"
               id="path2897"
               inkscape:connector-curvature="0" />
            <path
               d="m 32.623,25.156 c 0.305,2.564 5.264,-5.798 9.168,-9.724 4.768,-4.795 11.996,-8.1509 15.474,-8.5943 6.198,-0.7905 3.256,-3.828 -0.629,-3.0606 -14.12,2.7892 -24.79,14.839 -24.013,21.379 z"
               style="opacity:0.6;fill:#ffffff;fill-rule:evenodd"
               id="path2901"
               inkscape:connector-curvature="0" />
            <path
               d="m 91.58,16.452 c 2.894,5.237 -3.02,1.942 -4.397,0.29 C 83.312,12.097 76.786,8.7435 71.064,7.6624 66.266,6.7557 64.916,4.9102 68.863,4.5892 c 7.87,-0.64 19.942,6.8408 22.717,11.863 z"
               style="opacity:0.8;fill:#ffffff;fill-rule:evenodd"
               id="path2909"
               inkscape:connector-curvature="0" />
            <path
               d="M 95.798,24.925 C 95.503,27.491 90.514,19.146 86.595,15.235 81.809,10.458 74.569,7.1282 71.09,6.6976 64.889,5.9299 67.797,3.0024 71.707,3.6353 c 14.141,2.3015 24.844,14.747 24.091,21.29 z"
               style="opacity:0.6;fill:#ffffff;fill-rule:evenodd"
               id="path2911"
               inkscape:connector-curvature="0" />
            <path
               d="M 49.032,11.138 C 41.943,15.187 37.953,22.09 38.734,24.39 c 0.842,2.479 5.823,-8.601 19.923,-12.032 10.873,-2.646 0,-6.7166 -9.625,-1.22 z"
               style="opacity:0.4;fill:url(#radialGradient4958);fill-rule:evenodd"
               id="path2953"
               inkscape:connector-curvature="0" />
            <path
               d="m 79.54,10.945 c 6.541,4.118 10.222,11.138 9.501,13.479 C 88.265,26.945 83.669,15.676 70.66,12.186 60.629,9.4947 70.661,5.3546 79.54,10.945 Z"
               style="opacity:0.4;fill:url(#radialGradient4955);fill-rule:evenodd"
               id="path2957"
               inkscape:connector-curvature="0" />
            <path
               d="m 120.72,124.78 c 0,2.23 -25.235,4.03 -56.361,4.03 C 33.233,128.81 8,127.01 8,124.78 c 0,-2.22 25.233,-4.02 56.359,-4.02 31.126,0 56.361,1.8 56.361,4.02 z"
               style="opacity:0.4;fill:url(#radialGradient4952);fill-rule:evenodd"
               id="path3055"
               inkscape:connector-curvature="0" />
            <path
               d="m 120.72,121.76 c 0,2.78 -25.235,5.04 -56.361,5.04 C 33.233,126.8 8,124.54 8,121.76 c 0,-2.78 25.233,-5.03 56.359,-5.03 31.126,0 56.361,2.25 56.361,5.03 z"
               style="opacity:0.4;fill:url(#radialGradient4949);fill-rule:evenodd"
               id="path3065"
               inkscape:connector-curvature="0" />
            <path
               d="m 120.72,122.77 c 0,2.22 -25.235,4.03 -56.361,4.03 C 33.233,126.8 8,124.99 8,122.77 c 0,-2.22 25.233,-4.03 56.359,-4.03 31.126,0 56.361,1.81 56.361,4.03 z"
               style="opacity:0.4;fill:url(#radialGradient4946);fill-rule:evenodd"
               id="path3067"
               inkscape:connector-curvature="0" />
          </g>
          <g
             id="g4928">
            <rect
               x="24.103001"
               y="57.359001"
               width="80.513"
               height="66.259003"
               ry="0.5"
               rx="0.5"
               style="fill:url(#linearGradient3151);fill-rule:evenodd"
               id="rect1941" />
            <rect
               x="24.103001"
               y="57.359001"
               width="80.513"
               height="66.259003"
               ry="0.5"
               rx="0.5"
               style="opacity:0.02999998;fill:url(#linearGradient3148);fill-rule:evenodd"
               id="rect2709" />
            <rect
               x="24.103001"
               y="57.359001"
               width="80.513"
               height="66.259003"
               ry="0.5"
               rx="0.5"
               style="opacity:0.02999998;fill:url(#linearGradient3145);fill-rule:evenodd"
               id="rect2734" />
            <rect
               x="24.103001"
               y="57.359001"
               width="80.513"
               height="66.259003"
               ry="0.5"
               rx="0.5"
               style="opacity:0.02999998;fill:url(#linearGradient3142);fill-rule:evenodd"
               id="rect2738" />
            <path
               d="m 26.619,57.359 c 1.81,2.122 18.145,3.786 38.655,3.786 20.229,0 36.296,-1.647 38.486,-3.727 -0.03,-0.003 -0.03,-0.059 -0.06,-0.059 z"
               style="opacity:0.5;fill:#ffffff;fill-rule:evenodd"
               id="path2727"
               inkscape:connector-curvature="0" />
            <g
               transform="matrix(1.7195,0,0,1.9816,4.4209,1.4876)"
               id="g2798">
              <path
                 d="m 13.971,30.767 c -0.439,2.629 -0.931,19.309 0.697,22.88 1.592,3.493 1.393,-16.667 5.273,-19.84 3.921,-3.207 -5.555,-5.52 -5.97,-3.04 z"
                 style="opacity:0.40278003;fill:url(#radialGradient1304);fill-rule:evenodd"
                 id="path2778"
                 inkscape:connector-curvature="0" />
              <path
                 d="m 13.729,30.942 c -0.508,3.069 -1.075,22.541 0.803,26.71 1.837,4.078 1.608,-19.457 6.085,-23.161 4.525,-3.744 -6.41,-6.445 -6.888,-3.549 z"
                 style="opacity:0.3;fill:url(#radialGradient1306);fill-rule:evenodd"
                 id="path2790"
                 inkscape:connector-curvature="0" />
              <path
                 d="m 13.232,31.092 c -0.631,3.449 -1.335,25.325 0.998,30.009 2.283,4.582 1.998,-21.86 7.562,-26.022 5.623,-4.206 -7.966,-7.24 -8.56,-3.987 z"
                 style="opacity:0.2;fill:url(#radialGradient1308);fill-rule:evenodd"
                 id="path2794"
                 inkscape:connector-curvature="0" />
            </g>
            <g
               transform="matrix(-1.7195,0,0,1.9816,124.3,1.4876)"
               id="g2803">
              <path
                 d="m 13.971,30.767 c -0.439,2.629 -0.931,19.309 0.697,22.88 1.592,3.493 1.393,-16.667 5.273,-19.84 3.921,-3.207 -5.555,-5.52 -5.97,-3.04 z"
                 style="opacity:0.40278003;fill:url(#radialGradient3114);fill-rule:evenodd"
                 id="path2805"
                 inkscape:connector-curvature="0" />
              <path
                 d="m 13.729,30.942 c -0.508,3.069 -1.075,22.541 0.803,26.71 1.837,4.078 1.608,-19.457 6.085,-23.161 4.525,-3.744 -6.41,-6.445 -6.888,-3.549 z"
                 style="opacity:0.3;fill:url(#radialGradient3116);fill-rule:evenodd"
                 id="path2807"
                 inkscape:connector-curvature="0" />
              <path
                 d="m 13.232,31.092 c -0.631,3.449 -1.335,25.325 0.998,30.009 2.283,4.582 1.998,-21.86 7.562,-26.022 5.623,-4.206 -7.966,-7.24 -8.56,-3.987 z"
                 style="opacity:0.2;fill:url(#radialGradient3118);fill-rule:evenodd"
                 id="path2809"
                 inkscape:connector-curvature="0" />
            </g>
            <path
               d="m 103.12,114.72 v 7.89 c 0,0.56 -0.44,1.01 -0.97,1.01 H 26.572 c -0.537,0 -0.969,-0.45 -0.969,-1.01 V 94.596 c 0,29.514 77.517,-20.879 77.517,20.124 z"
               style="opacity:0.25;fill:url(#linearGradient3130);fill-rule:evenodd"
               id="rect3077"
               inkscape:connector-curvature="0" />
            <path
               d="m 25.647,123.62 c 1.81,-2.12 18.145,-3.79 38.655,-3.79 20.229,0 36.298,1.65 38.488,3.73 -0.04,0 -0.03,0.06 -0.06,0.06 z"
               style="opacity:0.5;fill:#000000;fill-rule:evenodd"
               id="path2768"
               inkscape:connector-curvature="0" />
          </g>
        </g>
      </g>
      <g
         transform="translate(-59.693432,51.1406)"
         id="text1312"
         style="font-style:normal;font-variant:normal;font-weight:normal;font-stretch:normal;font-size:3.26319432px;line-height:1.25;font-family:sans-serif;-inkscape-font-specification:sans-serif;letter-spacing:0px;word-spacing:0px;fill:#000000;fill-opacity:1;stroke:none;stroke-width:0.26458332"
         aria-label="=">
        <path
           inkscape:connector-curvature="0"
           id="path1314"
           style="font-size:29.63333321px;stroke-width:0.26458332"
           d="m 88.091788,76.139771 v 2.329573 h -12.06748 v -2.329573 z m 0,6.004801 v 2.329574 h -12.06748 v -2.329574 z" />
      </g>
      <path
         transform="matrix(2.0460214,0,0,1,-187.03018,-1.5112429)"
         sodipodi:nodetypes="cc"
         inkscape:original-d="m 119.05875,133.34756 c 19.91451,-0.14251 39.82876,-0.28475 59.74274,-0.42673"
         inkscape:path-effect="#path-effect1321"
         inkscape:connector-curvature="0"
         id="path1319"
         d="m 119.05875,133.34756 c 19.91451,-0.14225 39.82876,-0.28449 59.74274,-0.42673"
         style="fill:none;stroke:#000000;stroke-width:1.39821804;stroke-linecap:butt;stroke-linejoin:miter;stroke-miterlimit:3.5999999;stroke-dasharray:none;stroke-opacity:1;marker-end:url(#Arrow1Send)" />
      <g
         id="g1811-3"
         transform="translate(97.817573,-0.79903244)">
        <g
           id="g1044-6"
           transform="translate(0.06988431,0.30174641)">
          <path
             d="m 90.642516,117.98424 c -0.84238,0 -1.513099,0.67897 -1.513099,1.52135 v 24.87851 c 0,0.84238 0.670693,1.52135 1.513099,1.52135 h 18.471094 c 0.84238,0 1.5131,-0.67897 1.5131,-1.52135 v -18.69387 h -5.56446 c -1.13932,0 -2.1332,-0.83108 -2.1332,-1.93477 v -5.77109 z m 13.345054,0 v 5.77109 c 0,0.45352 0.4318,0.87643 1.07487,0.87643 h 5.56445 z"
             style="color:#000000;fill:url(#linearGradient2229);stroke-width:0.26458332"
             id="rect3034-6-1"
             inkscape:connector-curvature="0" />
          <rect
             x="91.982101"
             y="124.64142"
             width="10.061046"
             height="1.6365538"
             ry="0.46759811"
             rx="0.46759811"
             style="color:#000000;fill:#e3e300;fill-opacity:1;stroke-width:0.26458332"
             id="rect2987-2-0" />
          <rect
             x="91.982101"
             y="132.26909"
             width="15.791921"
             height="1.6365538"
             ry="0.46759811"
             rx="0.46759811"
             style="color:#000000;fill:#e3e300;fill-opacity:1;stroke-width:0.26458332"
             id="rect2999-9-6" />
          <rect
             x="91.982101"
             y="128.45512"
             width="10.061046"
             height="1.6365538"
             ry="0.46759811"
             rx="0.46759811"
             style="color:#000000;fill:#e3e300;fill-opacity:1;stroke-width:0.26458332"
             id="rect3001-1-3" />
          <rect
             x="91.982101"
             y="136.08279"
             width="15.791921"
             height="1.6365538"
             ry="0.46759811"
             rx="0.46759811"
             style="color:#000000;fill:#e3e300;fill-opacity:1;stroke-width:0.26458332"
             id="rect3003-2-2" />
          <rect
             x="91.982101"
             y="139.8965"
             width="15.791921"
             height="1.6365538"
             ry="0.46759811"
             rx="0.46759811"
             style="color:#000000;fill:#e3e300;fill-opacity:1;stroke-width:0.26458332"
             id="rect3005-7-0" />
        </g>
        <g
           id="g5908-6"
           transform="matrix(0.12504944,0.02867483,-0.02867483,0.12504944,101.27549,126.09861)">
          <g
             id="g5889-1">
            <path
               d="M 64.359,2 C 44.287,2 28.128,18.159 28.128,38.231 V 78.487 H 38.192 V 38.231 c 0,-14.497 11.671,-26.167 26.167,-26.167 14.496,0 26.167,11.67 26.167,26.167 V 78.487 H 100.59 V 38.231 C 100.59,18.159 84.431,2 64.359,2 Z"
               style="fill:#282828;fill-rule:evenodd"
               id="rect2723-5"
               inkscape:connector-curvature="0" />
            <path
               d="m 64.359,4.6293 c -18.957,0 -34.218,16.307 -34.218,34.909 v 37.528 c 0,14.09 8.776,26.054 21.261,31.044 -8.945,-4.07 -15.222,-12.796 -15.222,-23.143 v -47.404 c 0,-14.225 11.67,-26.621 26.166,-26.621 h 4.026 c 14.496,0 26.167,12.396 26.167,26.621 v 47.404 c 0,10.347 -6.277,19.073 -15.222,23.143 12.484,-4.99 21.26,-16.954 21.26,-31.044 v -37.528 c 0,-18.602 -15.261,-34.909 -34.218,-34.909 z"
               style="opacity:0.65;fill:url(#linearGradient4983-0);fill-rule:evenodd"
               id="path3082-5"
               inkscape:connector-curvature="0" />
            <path
               d="m 64.359,2.8539 c -19.51,0 -35.217,15.601 -35.217,34.98 v 39.095 c 0,14.677 9.033,27.141 21.881,32.341 -9.206,-4.24 -15.666,-13.332 -15.666,-24.11 v -49.384 c 0,-14.819 12.011,-29.082 26.931,-29.082 l 4.143,-10e-5 c 14.919,0 26.93,14.263 26.93,29.082 v 49.384 c 0,10.778 -6.46,19.87 -15.666,24.11 12.848,-5.2 21.881,-17.664 21.881,-32.341 v -39.095 c 0,-19.379 -15.707,-34.98 -35.217,-34.98 z"
               style="opacity:0.5;fill:url(#linearGradient4980-6);fill-rule:evenodd"
               id="path2931-4"
               inkscape:connector-curvature="0" />
            <path
               d="m 49.471,12.003 c -5.439,3.405 -8.499,9.21 -7.9,11.145 0.646,2.085 4.467,-7.233 15.283,-10.119 8.341,-2.225 0,-5.6488 -7.383,-1.026 z"
               style="opacity:0.8;fill:url(#radialGradient4977-1);fill-rule:evenodd"
               id="path2861-7"
               inkscape:connector-curvature="0" />
            <path
               d="m 79.248,11.903 c 5.438,3.405 8.498,9.21 7.899,11.145 -0.646,2.085 -4.467,-7.233 -15.283,-10.119 -8.341,-2.225 0,-5.6489 7.384,-1.026 z"
               style="opacity:0.8;fill:url(#radialGradient4974-9);fill-rule:evenodd"
               id="path2871-6"
               inkscape:connector-curvature="0" />
            <path
               d="m 64.359,6.2794 c -18.957,0 -34.218,12.995 -34.218,31.952 v 38.244 c 0,14.357 8.776,26.545 21.261,31.635 -8.945,-4.15 -15.222,-13.04 -15.222,-23.584 v -48.308 c 0,-14.496 11.67,-26.182 26.166,-26.182 h 4.026 c 14.496,0 26.167,11.686 26.167,26.182 v 48.308 c 0,10.544 -6.277,19.434 -15.222,23.584 12.484,-5.09 21.26,-17.278 21.26,-31.635 v -38.244 c 0,-18.957 -15.261,-31.952 -34.218,-31.952 z"
               style="opacity:0.5;fill:url(#linearGradient4971-2);fill-rule:evenodd"
               id="rect2875-5"
               inkscape:connector-curvature="0" />
            <path
               d="m 64.359,4.0389 c -26.762,0 -32.937,23.315 -32.937,33.86 0,31.634 2.058,31.634 2.058,0 0,-23.199 16.463,-32.355 30.879,-32.355 14.416,2e-4 30.879,10.103 30.879,32.355 0,31.634 2.059,31.634 2.059,0 0,-10.545 -6.176,-33.86 -32.938,-33.86 z"
               style="opacity:0.8;fill:url(#linearGradient4968-0);fill-rule:evenodd"
               id="path2933-6"
               inkscape:connector-curvature="0" />
            <path
               d="m 64.359,7.0913 c -26.167,0 -32.205,22.3 -32.205,31.988 0,29.062 2.013,29.062 2.013,0 0,-21.312 16.096,-30.605 30.192,-30.605 14.096,2e-4 30.193,10.162 30.193,30.605 0,29.062 2.012,29.062 2.012,0 0,-9.688 -6.038,-31.988 -32.205,-31.988 z"
               style="opacity:0.6;fill:url(#linearGradient4965-2);fill-rule:evenodd"
               id="path2885-9"
               inkscape:connector-curvature="0" />
            <path
               d="m 36.98,16.488 c -2.876,5.248 3.027,1.931 4.398,0.273 C 45.232,12.102 51.745,8.7251 57.463,7.6228 62.257,6.6985 62.988,4.8471 59.04,4.5407 51.168,3.9296 39.736,11.456 36.98,16.4877 Z"
               style="opacity:0.8;fill:#ffffff;fill-rule:evenodd"
               id="path2897-3"
               inkscape:connector-curvature="0" />
            <path
               d="m 32.623,25.156 c 0.305,2.564 5.264,-5.798 9.168,-9.724 4.768,-4.795 11.996,-8.1509 15.474,-8.5943 6.198,-0.7905 3.256,-3.828 -0.629,-3.0606 -14.12,2.7892 -24.79,14.839 -24.013,21.379 z"
               style="opacity:0.6;fill:#ffffff;fill-rule:evenodd"
               id="path2901-7"
               inkscape:connector-curvature="0" />
            <path
               d="m 91.58,16.452 c 2.894,5.237 -3.02,1.942 -4.397,0.29 C 83.312,12.097 76.786,8.7435 71.064,7.6624 66.266,6.7557 64.916,4.9102 68.863,4.5892 c 7.87,-0.64 19.942,6.8408 22.717,11.863 z"
               style="opacity:0.8;fill:#ffffff;fill-rule:evenodd"
               id="path2909-4"
               inkscape:connector-curvature="0" />
            <path
               d="M 95.798,24.925 C 95.503,27.491 90.514,19.146 86.595,15.235 81.809,10.458 74.569,7.1282 71.09,6.6976 64.889,5.9299 67.797,3.0024 71.707,3.6353 c 14.141,2.3015 24.844,14.747 24.091,21.29 z"
               style="opacity:0.6;fill:#ffffff;fill-rule:evenodd"
               id="path2911-5"
               inkscape:connector-curvature="0" />
            <path
               d="M 49.032,11.138 C 41.943,15.187 37.953,22.09 38.734,24.39 c 0.842,2.479 5.823,-8.601 19.923,-12.032 10.873,-2.646 0,-6.7166 -9.625,-1.22 z"
               style="opacity:0.4;fill:url(#radialGradient4958-3);fill-rule:evenodd"
               id="path2953-2"
               inkscape:connector-curvature="0" />
            <path
               d="m 79.54,10.945 c 6.541,4.118 10.222,11.138 9.501,13.479 C 88.265,26.945 83.669,15.676 70.66,12.186 60.629,9.4947 70.661,5.3546 79.54,10.945 Z"
               style="opacity:0.4;fill:url(#radialGradient4955-7);fill-rule:evenodd"
               id="path2957-5"
               inkscape:connector-curvature="0" />
            <path
               d="m 120.72,124.78 c 0,2.23 -25.235,4.03 -56.361,4.03 C 33.233,128.81 8,127.01 8,124.78 c 0,-2.22 25.233,-4.02 56.359,-4.02 31.126,0 56.361,1.8 56.361,4.02 z"
               style="opacity:0.4;fill:url(#radialGradient4952-5);fill-rule:evenodd"
               id="path3055-4"
               inkscape:connector-curvature="0" />
            <path
               d="m 120.72,121.76 c 0,2.78 -25.235,5.04 -56.361,5.04 C 33.233,126.8 8,124.54 8,121.76 c 0,-2.78 25.233,-5.03 56.359,-5.03 31.126,0 56.361,2.25 56.361,5.03 z"
               style="opacity:0.4;fill:url(#radialGradient4949-2);fill-rule:evenodd"
               id="path3065-7"
               inkscape:connector-curvature="0" />
            <path
               d="m 120.72,122.77 c 0,2.22 -25.235,4.03 -56.361,4.03 C 33.233,126.8 8,124.99 8,122.77 c 0,-2.22 25.233,-4.03 56.359,-4.03 31.126,0 56.361,1.81 56.361,4.03 z"
               style="opacity:0.4;fill:url(#radialGradient4946-8);fill-rule:evenodd"
               id="path3067-4"
               inkscape:connector-curvature="0" />
          </g>
          <g
             id="g4928-4">
            <rect
               x="24.103001"
               y="57.359001"
               width="80.513"
               height="66.259003"
               ry="0.5"
               rx="0.5"
               style="fill:url(#linearGradient3151-9);fill-rule:evenodd"
               id="rect1941-3" />
            <rect
               x="24.103001"
               y="57.359001"
               width="80.513"
               height="66.259003"
               ry="0.5"
               rx="0.5"
               style="opacity:0.02999998;fill:url(#linearGradient3148-1);fill-rule:evenodd"
               id="rect2709-0" />
            <rect
               x="24.103001"
               y="57.359001"
               width="80.513"
               height="66.259003"
               ry="0.5"
               rx="0.5"
               style="opacity:0.02999998;fill:url(#linearGradient3145-3);fill-rule:evenodd"
               id="rect2734-7" />
            <rect
               x="24.103001"
               y="57.359001"
               width="80.513"
               height="66.259003"
               ry="0.5"
               rx="0.5"
               style="opacity:0.02999998;fill:url(#linearGradient3142-1);fill-rule:evenodd"
               id="rect2738-8" />
            <path
               d="m 26.619,57.359 c 1.81,2.122 18.145,3.786 38.655,3.786 20.229,0 36.296,-1.647 38.486,-3.727 -0.03,-0.003 -0.03,-0.059 -0.06,-0.059 z"
               style="opacity:0.5;fill:#ffffff;fill-rule:evenodd"
               id="path2727-6"
               inkscape:connector-curvature="0" />
            <g
               transform="matrix(1.7195,0,0,1.9816,4.4209,1.4876)"
               id="g2798-8">
              <path
                 d="m 13.971,30.767 c -0.439,2.629 -0.931,19.309 0.697,22.88 1.592,3.493 1.393,-16.667 5.273,-19.84 3.921,-3.207 -5.555,-5.52 -5.97,-3.04 z"
                 style="opacity:0.40278003;fill:url(#radialGradient1304-9);fill-rule:evenodd"
                 id="path2778-8"
                 inkscape:connector-curvature="0" />
              <path
                 d="m 13.729,30.942 c -0.508,3.069 -1.075,22.541 0.803,26.71 1.837,4.078 1.608,-19.457 6.085,-23.161 4.525,-3.744 -6.41,-6.445 -6.888,-3.549 z"
                 style="opacity:0.3;fill:url(#radialGradient1306-4);fill-rule:evenodd"
                 id="path2790-4"
                 inkscape:connector-curvature="0" />
              <path
                 d="m 13.232,31.092 c -0.631,3.449 -1.335,25.325 0.998,30.009 2.283,4.582 1.998,-21.86 7.562,-26.022 5.623,-4.206 -7.966,-7.24 -8.56,-3.987 z"
                 style="opacity:0.2;fill:url(#radialGradient1308-7);fill-rule:evenodd"
                 id="path2794-3"
                 inkscape:connector-curvature="0" />
            </g>
            <g
               transform="matrix(-1.7195,0,0,1.9816,124.3,1.4876)"
               id="g2803-1">
              <path
                 d="m 13.971,30.767 c -0.439,2.629 -0.931,19.309 0.697,22.88 1.592,3.493 1.393,-16.667 5.273,-19.84 3.921,-3.207 -5.555,-5.52 -5.97,-3.04 z"
                 style="opacity:0.40278003;fill:url(#radialGradient3114-8);fill-rule:evenodd"
                 id="path2805-4"
                 inkscape:connector-curvature="0" />
              <path
                 d="m 13.729,30.942 c -0.508,3.069 -1.075,22.541 0.803,26.71 1.837,4.078 1.608,-19.457 6.085,-23.161 4.525,-3.744 -6.41,-6.445 -6.888,-3.549 z"
                 style="opacity:0.3;fill:url(#radialGradient3116-4);fill-rule:evenodd"
                 id="path2807-9"
                 inkscape:connector-curvature="0" />
              <path
                 d="m 13.232,31.092 c -0.631,3.449 -1.335,25.325 0.998,30.009 2.283,4.582 1.998,-21.86 7.562,-26.022 5.623,-4.206 -7.966,-7.24 -8.56,-3.987 z"
                 style="opacity:0.2;fill:url(#radialGradient3118-5);fill-rule:evenodd"
                 id="path2809-2"
                 inkscape:connector-curvature="0" />
            </g>
            <path
               d="m 103.12,114.72 v 7.89 c 0,0.56 -0.44,1.01 -0.97,1.01 H 26.572 c -0.537,0 -0.969,-0.45 -0.969,-1.01 V 94.596 c 0,29.514 77.517,-20.879 77.517,20.124 z"
               style="opacity:0.25;fill:url(#linearGradient3130-0);fill-rule:evenodd"
               id="rect3077-0"
               inkscape:connector-curvature="0" />
            <path
               d="m 25.647,123.62 c 1.81,-2.12 18.145,-3.79 38.655,-3.79 20.229,0 36.298,1.65 38.488,3.73 -0.04,0 -0.03,0.06 -0.06,0.06 z"
               style="opacity:0.5;fill:#000000;fill-rule:evenodd"
               id="path2768-6"
               inkscape:connector-curvature="0" />
          </g>
        </g>
      </g>
      <g
         id="layer1-6-6"
         inkscape:label="Layer 1"
         transform="matrix(-0.03446582,0.03383736,-0.03383736,-0.03446582,248.29827,132.49012)">
        <g
           id="g3463-4"
           transform="translate(567.46,330)">
          <path
             inkscape:connector-curvature="0"
             id="path3439-9"
             style="fill:url(#linearGradient1317-8);stroke:#000000;stroke-width:8.38560009;stroke-miterlimit:10"
             d="m -374.29,-94.027 c -95,0 -172.1,76.484 -172.1,170.69 0,94.197 77.1,170.66 172.1,170.66 83.89,0 153.8,-59.65 169,-138.47 l 2.96,-0.03 28.32,-25.222 51.56,23.942 23.093,-25.192 33.312,26.782 c 15.735,-6.19 38.207,4.13 47.813,-2.06 l 19.344,-25.534 46.093,23.374 61.755,-0.97 33.78,-43.779 17.31,-68.875 -383.88,2.531 c -29.39,-52.38 -85.78,-87.844 -150.46,-87.844 z m -97.41,125.81 c 22.08,0 40,16.653 40,37.156 0,20.503 -17.92,37.128 -40,37.128 -22.08,0 -40,-16.625 -40,-37.128 0,-20.503 17.92,-37.156 40,-37.156 z" />
          <rect
             id="rect3441-5"
             style="fill:#333333;stroke:#000000;stroke-width:7.62750006;stroke-miterlimit:10"
             height="20.042"
             width="325.60999"
             y="12.467"
             x="-196.55" />
          <path
             inkscape:connector-curvature="0"
             id="path3443-0"
             style="opacity:0.49751;fill:#ffffff"
             d="m -373.46,-91.626 c -91.47,0 -165.71,74.851 -165.71,167.06 0,5.826 0.32,11.551 0.9,17.221 8.57,-84.118 79.12,-149.81 164.81,-149.81 85.7,-0.002 156.28,65.692 164.85,149.81 0.58,-5.67 0.87,-11.395 0.87,-17.218 0,-23.976 -5.02,-46.79 -14.06,-67.407 l 372.63,4e-4 v -10.219 l -377.54,3e-4 c -27.74,-53.153 -83.06,-89.438 -146.75,-89.438 z" />
          <path
             inkscape:connector-curvature="0"
             id="path3445-4"
             sodipodi:nodetypes="cssscsssc"
             style="fill:#808000"
             d="m -448.76,43.787 c 5.59,5.126 9.04,12.094 9.04,19.791 0,15.716 -14.36,28.487 -32.03,28.487 -17.67,0 -32,-12.771 -32,-28.487 0,-6.125 1.82,-12.292 5.53,-16.938 -6.14,5.812 -9.56,14.119 -9.56,22.718 0,17.926 16.37,32.482 36.52,32.482 20.16,0 36.52,-14.556 36.52,-32.482 0,-10.375 -5.5,-19.624 -14.02,-25.571 z" />
        </g>
      </g>
      <g
         transform="translate(163.56048,2.713664)"
         id="text974-8"
         style="font-style:normal;font-variant:normal;font-weight:normal;font-stretch:normal;font-size:3.26319432px;line-height:1.25;font-family:sans-serif;-inkscape-font-specification:sans-serif;letter-spacing:0px;word-spacing:0px;fill:#000000;fill-opacity:1;stroke:none;stroke-width:0.26458332"
         aria-label="+">
        <path
           inkscape:connector-curvature="0"
           id="path976-7"
           style="font-size:28.22222137px;stroke-width:0.24916893"
           d="m 56.854065,129.58653 h -5.533457 v 5.6966 h -2.521403 v -5.6966 h -5.547087 v -2.15013 h 5.547087 v -5.25174 h 2.521403 v 5.25174 h 5.533457 z" />
      </g>
      <g
         transform="translate(162.03372,51.1406)"
         id="text1312-1"
         style="font-style:normal;font-variant:normal;font-weight:normal;font-stretch:normal;font-size:3.26319432px;line-height:1.25;font-family:sans-serif;-inkscape-font-specification:sans-serif;letter-spacing:0px;word-spacing:0px;fill:#000000;fill-opacity:1;stroke:none;stroke-width:0.26458332"
         aria-label="=">
        <path
           inkscape:connector-curvature="0"
           id="path1314-7"
           style="font-size:29.63333321px;stroke-width:0.26458332"
           d="m 88.091788,76.139771 v 2.329573 h -12.06748 v -2.329573 z m 0,6.004801 v 2.329574 h -12.06748 v -2.329574 z" />
      </g>
      <g
         transform="matrix(0.26458333,0,0,0.26458333,248.12836,114.51423)"
         id="g895-2">
        <rect
           id="rect3872-2"
           style="color:#000000;opacity:0;stroke-width:0.96359998"
           rx="0"
           ry="0"
           height="128"
           width="128"
           y="0"
           x="0" />
        <path
           inkscape:connector-curvature="0"
           id="rect3034-61"
           style="color:#000000;fill:url(#linearGradient2339)"
           d="m 29.094,11.236 c -3.1838,0 -5.7188,2.5662 -5.7188,5.75 v 94.029 c 0,3.1838 2.5349,5.75 5.7188,5.75 h 69.812 c 3.1838,0 5.7188,-2.5662 5.7188,-5.75 V 40.361 h -21.031 c -4.3061,0 -8.0625,-3.1411 -8.0625,-7.3125 v -21.812 z m 50.438,0 v 21.812 c 0,1.7141 1.632,3.3125 4.0625,3.3125 h 21.031 z" />
        <rect
           id="rect2987-0"
           style="color:#000000;fill:#4d4d4d"
           rx="1.7673"
           ry="1.7673"
           height="6.1854"
           width="38.026001"
           y="36.396999"
           x="34.157001" />
        <rect
           id="rect2999-6"
           style="color:#000000;fill:#4d4d4d"
           rx="1.7673"
           ry="1.7673"
           height="6.1854"
           width="59.686001"
           y="65.225998"
           x="34.157001" />
        <rect
           id="rect3001-15"
           style="color:#000000;fill:#4d4d4d"
           rx="1.7673"
           ry="1.7673"
           height="6.1854"
           width="38.026001"
           y="50.811001"
           x="34.157001" />
        <rect
           id="rect3003-9"
           style="color:#000000;fill:#4d4d4d"
           rx="1.7673"
           ry="1.7673"
           height="6.1854"
           width="59.686001"
           y="79.639999"
           x="34.157001" />
        <rect
           id="rect3005-4"
           style="color:#000000;fill:#4d4d4d"
           rx="1.7673"
           ry="1.7673"
           height="6.1854"
           width="59.686001"
           y="94.054001"
           x="34.157001" />
      </g>
      <g
         transform="matrix(0.77901957,0,0,0.77901957,27.347548,30.656425)"
         id="g2734">
        <path
           style="opacity:1;fill:#ffffff;fill-opacity:1;stroke:#000000;stroke-width:1;stroke-linecap:butt;stroke-linejoin:round;stroke-miterlimit:3.9000001;stroke-dasharray:none;stroke-dashoffset:0;stroke-opacity:1;paint-order:normal"
           d="m 131.41072,107.82289 a 21.707962,10.995963 0 0 0 -19.16731,5.84667 27.458924,16.143432 0 0 0 -3.31297,-0.13125 27.458924,16.143432 0 0 0 -10.142539,1.14773 19.258833,14.883507 0 0 0 -15.355133,-5.92264 19.258833,14.883507 0 0 0 -19.258775,14.88333 19.258833,14.883507 0 0 0 11.908835,13.7511 27.51193,12.877228 0 0 0 -0.397391,2.09031 27.51193,12.877228 0 0 0 27.512013,12.87725 27.51193,12.877228 0 0 0 23.91585,-6.52931 23.621517,12.909517 0 0 0 16.21607,3.54448 23.621517,12.909517 0 0 0 23.62181,-12.9098 23.621517,12.909517 0 0 0 -16.56591,-12.3176 21.707962,10.995963 0 0 0 2.73316,-5.33456 21.707962,10.995963 0 0 0 -21.70771,-10.99571 z"
           id="path2343"
           inkscape:connector-curvature="0" />
        <g
           aria-label="Internet"
           style="font-style:normal;font-variant:normal;font-weight:normal;font-stretch:normal;font-size:3.26319432px;line-height:1.25;font-family:sans-serif;-inkscape-font-specification:sans-serif;letter-spacing:0px;word-spacing:0px;fill:#000000;fill-opacity:1;stroke:none;stroke-width:0.26458332"
           id="text2705">
          <path
             inkscape:connector-curvature="0"
             d="m 84.766882,122.97519 v 14.04497 h -1.86173 v -14.04497 z"
             style="font-size:19.75555611px;stroke-width:0.26458332"
             id="path2707" />
          <path
             inkscape:connector-curvature="0"
             d="m 92.204154,127.89479 q -0.858518,0 -1.514464,0.46302 -0.655946,0.46302 -1.032151,1.20578 v 7.45657 H 87.87298 V 126.5829 h 1.688097 l 0.05788,1.30224 q 1.186491,-1.49517 3.115745,-1.49517 1.543402,0 2.440505,0.86816 0.906749,0.86817 0.906749,2.92282 v 6.83921 h -1.794205 v -6.8585 q 0,-1.22508 -0.540191,-1.74597 -0.530545,-0.5209 -1.543403,-0.5209 z"
             style="font-size:19.75555611px;stroke-width:0.26458332"
             id="path2709" />
          <path
             inkscape:connector-curvature="0"
             d="m 103.2009,137.02016 q -0.21222,0.0675 -0.55948,0.1254 -0.33762,0.0675 -0.81994,0.0675 -0.99356,0 -1.69774,-0.60771 -0.704178,-0.60772 -0.704178,-2.18006 v -6.47264 h -1.909961 v -1.36977 h 1.909961 v -2.53697 h 1.784558 v 2.53697 h 1.94855 v 1.36977 h -1.94855 v 6.48229 q 0,0.80064 0.34727,1.0225 0.34726,0.22187 0.80064,0.22187 0.22186,0 0.46302,-0.0386 0.2508,-0.0482 0.3762,-0.0772 z"
             style="font-size:19.75555611px;stroke-width:0.26458332"
             id="path2711" />
          <path
             inkscape:connector-curvature="0"
             d="m 113.50311,135.19701 q -0.51125,0.7717 -1.44694,1.39871 -0.93569,0.61736 -2.47909,0.61736 -2.18005,0 -3.49195,-1.418 -1.30224,-1.418 -1.30224,-3.627 v -0.40514 q 0,-1.70739 0.6463,-2.90353 0.65594,-1.20578 1.69774,-1.83279 1.0418,-0.63665 2.21864,-0.63665 2.23794,0 3.26044,1.46623 1.03215,1.45659 1.03215,3.64629 v 0.80064 h -7.06107 q 0.0386,1.4373 0.84887,2.45015 0.81994,1.00322 2.24758,1.00322 0.94534,0 1.60129,-0.38585 0.65594,-0.38586 1.1479,-1.03216 z m -4.15754,-7.34081 q -1.06109,0 -1.7942,0.7717 -0.73312,0.77171 -0.9164,2.21865 h 5.21863 v -0.13505 q -0.0675,-1.0418 -0.60771,-1.94855 -0.53055,-0.90675 -1.90032,-0.90675 z"
             style="font-size:19.75555611px;stroke-width:0.26458332"
             id="path2713" />
          <path
             inkscape:connector-curvature="0"
             d="m 119.88894,128.10701 q -0.91639,0 -1.50482,0.41479 -0.58842,0.40514 -0.87781,1.09002 v 7.40834 h -1.78456 V 126.5829 h 1.73633 l 0.0386,1.19613 q 0.39549,-0.63665 1.00321,-1.01286 0.61736,-0.3762 1.47588,-0.3762 0.5016,0 0.79099,0.13505 l -0.01,1.65916 q -0.39549,-0.0772 -0.86816,-0.0772 z"
             style="font-size:19.75555611px;stroke-width:0.26458332"
             id="path2715" />
          <path
             inkscape:connector-curvature="0"
             d="m 126.74744,127.89479 q -0.85852,0 -1.51447,0.46302 -0.65594,0.46302 -1.03215,1.20578 v 7.45657 h -1.78456 V 126.5829 h 1.6881 l 0.0579,1.30224 q 1.18649,-1.49517 3.11574,-1.49517 1.54341,0 2.44051,0.86816 0.90675,0.86817 0.90675,2.92282 v 6.83921 h -1.79421 v -6.8585 q 0,-1.22508 -0.54019,-1.74597 -0.53054,-0.5209 -1.5434,-0.5209 z"
             style="font-size:19.75555611px;stroke-width:0.26458332"
             id="path2717" />
          <path
             inkscape:connector-curvature="0"
             d="m 141.5834,135.19701 q -0.51126,0.7717 -1.44694,1.39871 -0.93569,0.61736 -2.47909,0.61736 -2.18006,0 -3.49195,-1.418 -1.30225,-1.418 -1.30225,-3.627 v -0.40514 q 0,-1.70739 0.6463,-2.90353 0.65595,-1.20578 1.69774,-1.83279 1.0418,-0.63665 2.21865,-0.63665 2.23793,0 3.26043,1.46623 1.03215,1.45659 1.03215,3.64629 v 0.80064 h -7.06106 q 0.0386,1.4373 0.84887,2.45015 0.81993,1.00322 2.24758,1.00322 0.94533,0 1.60128,-0.38585 0.65595,-0.38586 1.14791,-1.03216 z m -4.15754,-7.34081 q -1.06109,0 -1.79421,0.7717 -0.73312,0.77171 -0.9164,2.21865 h 5.21864 v -0.13505 q -0.0675,-1.0418 -0.60772,-1.94855 -0.53054,-0.90675 -1.90031,-0.90675 z"
             style="font-size:19.75555611px;stroke-width:0.26458332"
             id="path2719" />
          <path
             inkscape:connector-curvature="0"
             d="m 148.22003,137.02016 q -0.21222,0.0675 -0.55949,0.1254 -0.33761,0.0675 -0.81993,0.0675 -0.99356,0 -1.69774,-0.60771 -0.70418,-0.60772 -0.70418,-2.18006 v -6.47264 h -1.90996 v -1.36977 h 1.90996 v -2.53697 h 1.78456 v 2.53697 h 1.94855 v 1.36977 h -1.94855 v 6.48229 q 0,0.80064 0.34727,1.0225 0.34726,0.22187 0.80064,0.22187 0.22186,0 0.46302,-0.0386 0.2508,-0.0482 0.3762,-0.0772 z"
             style="font-size:19.75555611px;stroke-width:0.26458332"
             id="path2721" />
        </g>
      </g>
      <path
         transform="matrix(1,0,0,1.0568119,0.52916663,-6.7588899)"
         sodipodi:nodetypes="ccc"
         inkscape:original-d="M 12.280166,118.91068 C 46.106505,104.14449 79.932585,89.378558 113.7584,74.612892 c 35.80751,14.78531 71.61474,29.570878 107.42172,44.356718"
         inkscape:path-effect="#path-effect2738"
         inkscape:connector-curvature="0"
         id="path2736"
         d="M 12.280166,118.91068 C 46.106559,104.14461 79.932639,89.378683 114.74921,89.388602 c 34.81657,0.0099 70.6238,14.795488 106.43091,29.581008"
         style="fill:none;stroke:#000000;stroke-width:1;stroke-linecap:butt;stroke-linejoin:miter;stroke-miterlimit:4;stroke-dasharray:none;stroke-opacity:1;marker-start:url(#Arrow1Sstart);marker-end:url(#Arrow2Send)" />
      <g
         id="text3646"
         style="font-style:normal;font-variant:normal;font-weight:normal;font-stretch:normal;font-size:3.26319432px;line-height:1.25;font-family:sans-serif;-inkscape-font-specification:sans-serif;letter-spacing:0px;word-spacing:0px;fill:#000000;fill-opacity:1;stroke:none;stroke-width:0.26458332"
         transform="translate(0,-2.7157177)"
         aria-label="La misma clave">
        <path
           id="path6126"
           style="font-size:9.87777805px;text-align:center;text-anchor:middle;stroke-width:0.26458332"
           d="m 87.945153,89.875563 0.163922,0.739277 -4.157843,0.921928 -1.52019,-6.855967 0.908793,-0.201509 1.356268,6.116691 z"
           inkscape:connector-curvature="0" />
        <path
           id="path6128"
           style="font-size:9.87777805px;text-align:center;text-anchor:middle;stroke-width:0.26458332"
           d="m 92.184436,89.84169 q -0.119929,-0.168927 -0.224383,-0.517396 -0.197739,0.306873 -0.532045,0.565696 -0.335194,0.254082 -0.80928,0.342785 -0.786984,0.147246 -1.343564,-0.204951 -0.55658,-0.352198 -0.676329,-0.992215 -0.154343,-0.82491 0.391619,-1.368676 0.545075,-0.548506 1.602288,-0.746314 l 0.867578,-0.162326 -0.07628,-0.407714 q -0.08516,-0.455123 -0.410686,-0.673905 -0.321677,-0.224409 -0.857395,-0.124175 -0.49779,0.09314 -0.759821,0.39732 -0.258177,0.298553 -0.197859,0.620932 l -0.87706,0.164101 q -0.102896,-0.549941 0.361309,-1.137291 0.464204,-0.587351 1.393414,-0.761208 0.834392,-0.156117 1.449942,0.170326 0.61555,0.326444 0.77699,1.189281 l 0.447062,2.389396 q 0.0479,0.256007 0.144676,0.537217 0.101517,0.280322 0.230623,0.472067 l 0.01419,0.07585 z m -1.581403,-0.400885 q 0.474086,-0.0887 0.775818,-0.390499 0.306473,-0.302684 0.39459,-0.618487 l -0.197807,-1.057213 -0.725353,0.135715 q -1.569226,0.293606 -1.39182,1.241779 0.0683,0.365047 0.362725,0.574928 0.293538,0.205141 0.781847,0.113777 z"
           inkscape:connector-curvature="0" />
        <path
           id="path6130"
           style="font-size:9.87777805px;text-align:center;text-anchor:middle;stroke-width:0.26458332"
           d="m 98.250924,84.278027 q -0.474099,0.05681 -0.737331,0.292371 -0.263232,0.235562 -0.367305,0.583209 l 0.455043,3.79758 -0.890731,0.106731 -0.620878,-5.181565 0.842842,-0.100993 0.09166,0.562219 q 0.481111,-0.728003 1.453253,-0.844489 0.498043,-0.05968 0.910043,0.09498 0.416214,0.14929 0.67435,0.560404 0.21384,-0.404519 0.59814,-0.683734 0.38909,-0.279789 0.94939,-0.346927 0.83326,-0.09985 1.33678,0.291581 0.50831,0.390852 0.62595,1.372572 l 0.40799,3.404892 -0.89074,0.106731 -0.40913,-3.414469 q -0.078,-0.651288 -0.40729,-0.845003 -0.32502,-0.199078 -0.83264,-0.138252 -0.53636,0.06427 -0.8044,0.421848 -0.26862,0.35279 -0.26199,0.813472 l 0.412,3.438414 -0.885934,0.106157 -0.408563,-3.40968 Q 99.418553,84.657888 99.086445,84.440229 98.75376,84.21778 98.250928,84.278032 Z"
           inkscape:connector-curvature="0" />
        <path
           id="path6132"
           style="font-size:9.87777805px;text-align:center;text-anchor:middle;stroke-width:0.26458332"
           d="m 104.82499,81.534053 q -0.0168,-0.216391 0.10149,-0.375531 0.12308,-0.159512 0.38275,-0.179651 0.25486,-0.01977 0.40107,0.11886 0.15101,0.138253 0.1678,0.354644 0.016,0.206774 -0.11186,0.366659 -0.12345,0.154704 -0.37831,0.174471 -0.25967,0.02014 -0.4055,-0.113679 -0.1414,-0.138999 -0.15744,-0.345773 z m 1.06878,1.305503 0.40354,5.203006 -0.89442,0.06937 -0.40354,-5.203005 z"
           inkscape:connector-curvature="0" />
        <path
           id="path6134"
           style="font-size:9.87777805px;text-align:center;text-anchor:middle;stroke-width:0.26458332"
           d="m 110.69548,86.405057 q -0.0137,-0.289064 -0.24119,-0.505238 -0.22293,-0.22122 -1.00106,-0.338907 -0.88068,-0.141806 -1.4025,-0.455107 -0.517,-0.31353 -0.54756,-0.959107 -0.0292,-0.616671 0.47452,-1.094391 0.50852,-0.477948 1.38535,-0.519445 0.93464,-0.04423 1.48235,0.407872 0.5477,0.452104 0.57962,1.126588 l -0.89128,0.04218 q -0.0153,-0.322788 -0.31297,-0.593583 -0.29793,-0.275612 -0.82307,-0.25076 -0.55404,0.02622 -0.78352,0.278508 -0.22949,0.252287 -0.21604,0.536534 0.0137,0.289064 0.25337,0.456376 0.23946,0.162495 0.98433,0.291414 0.96922,0.176243 1.44355,0.506278 0.47433,0.330035 0.50419,0.961159 0.0326,0.688937 -0.50114,1.143937 -0.52893,0.454771 -1.43948,0.497863 -1.03582,0.04902 -1.61012,-0.454938 -0.5743,-0.503959 -0.60486,-1.149537 l 0.8961,-0.04241 q 0.0551,0.552672 0.46022,0.745956 0.40967,0.188239 0.824,0.168631 0.5444,-0.02576 0.82344,-0.251425 0.27903,-0.225661 0.26375,-0.54845 z"
           inkscape:connector-curvature="0" />
        <path
           id="path6136"
           style="font-size:9.87777805px;text-align:center;text-anchor:middle;stroke-width:0.26458332"
           d="m 114.95483,83.135998 q -0.47746,-0.0049 -0.76891,0.194691 -0.29145,0.19959 -0.43956,0.530884 l -0.0392,3.824544 -0.89706,-0.0092 0.0536,-5.218356 0.84883,0.0087 0.0183,0.569347 q 0.57111,-0.659766 1.55016,-0.649717 0.50158,0.0051 0.89015,0.211719 0.39345,0.201797 0.59633,0.642808 0.26429,-0.373512 0.68144,-0.600753 0.42196,-0.227191 0.98624,-0.2214 0.83918,0.0086 1.28793,0.461795 0.45357,0.45323 0.44342,1.44192 l -0.0352,3.429068 -0.89705,-0.0092 0.0353,-3.438714 q 0.007,-0.655911 -0.29473,-0.890528 -0.29659,-0.23939 -0.80782,-0.244638 -0.54016,-0.0055 -0.85214,0.314421 -0.31193,0.315142 -0.36486,0.772821 l -0.0356,3.462827 -0.89223,-0.0092 0.0352,-3.433891 q 0.006,-0.612506 -0.29494,-0.871237 -0.30116,-0.263554 -0.80757,-0.268752 z"
           inkscape:connector-curvature="0" />
        <path
           id="path6138"
           style="font-size:9.87777805px;text-align:center;text-anchor:middle;stroke-width:0.26458332"
           d="m 124.69463,88.072488 q -0.074,-0.193517 -0.0881,-0.557028 -0.26808,0.247798 -0.65641,0.414977 -0.38801,0.162366 -0.86923,0.129918 -0.79882,-0.05386 -1.24987,-0.533847 -0.45104,-0.479983 -0.40724,-1.129631 0.0565,-0.837324 0.72088,-1.227591 0.66474,-0.395079 1.73786,-0.32272 l 0.88063,0.05938 0.0279,-0.41385 q 0.0311,-0.461971 -0.22946,-0.755087 -0.25548,-0.297604 -0.79926,-0.33427 -0.50528,-0.03407 -0.83495,0.195073 -0.32453,0.224656 -0.34659,0.551886 l -0.89026,-0.06003 q 0.0376,-0.558216 0.63376,-1.011096 0.59613,-0.452881 1.53932,-0.389282 0.84695,0.05711 1.36153,0.526873 0.51457,0.469765 0.45552,1.345587 l -0.16354,2.425352 q -0.0175,0.259859 0.006,0.556324 0.0283,0.29679 0.10549,0.514692 l -0.005,0.077 z m -1.43127,-0.782949 q 0.48122,0.03245 0.84873,-0.184475 0.37233,-0.216599 0.53649,-0.500409 l 0.0724,-1.073122 -0.73627,-0.04965 q -1.59284,-0.107403 -1.65773,0.855038 -0.025,0.37054 0.20772,0.647272 0.23304,0.27192 0.7287,0.305342 z"
           inkscape:connector-curvature="0" />
        <path
           id="path6140"
           style="font-size:9.87777805px;text-align:center;text-anchor:middle;stroke-width:0.26458332"
           d="m 131.42727,88.124568 q 0.47382,0.05912 0.86322,-0.179057 0.39419,-0.237584 0.48263,-0.673717 l 0.84234,0.10511 q -0.1201,0.689792 -0.78823,1.136219 -0.66754,0.44164 -1.49073,0.338919 -1.16779,-0.14572 -1.64118,-0.987337 -0.4686,-0.84102 -0.3384,-1.884372 l 0.0251,-0.201013 q 0.13019,-1.043351 0.79109,-1.743428 0.66569,-0.699481 1.83348,-0.55376 0.90934,0.113471 1.40182,0.724165 0.49308,0.605907 0.42685,1.409353 l -0.84234,-0.10511 q 0.0262,-0.482782 -0.26221,-0.859011 -0.28365,-0.375632 -0.8149,-0.441923 -0.5456,-0.06808 -0.89133,0.170688 -0.34095,0.239367 -0.52332,0.649198 -0.17759,0.410428 -0.23373,0.860313 l -0.0251,0.201013 q -0.0567,0.454671 0.0145,0.896154 0.0713,0.441484 0.34295,0.757294 0.27705,0.311622 0.82744,0.380302 z"
           inkscape:connector-curvature="0" />
        <path
           id="path6142"
           style="font-size:9.87777805px;text-align:center;text-anchor:middle;stroke-width:0.26458332"
           d="m 136.4666,81.992964 -1.10566,7.325362 -0.88706,-0.133889 1.10566,-7.325361 z"
           inkscape:connector-curvature="0" />
        <path
           id="path6144"
           style="font-size:9.87777805px;text-align:center;text-anchor:middle;stroke-width:0.26458332"
           d="m 139.95035,90.090191 q -0.0529,-0.200302 -0.0282,-0.56325 -0.29299,0.217788 -0.69694,0.342588 -0.40311,0.120051 -0.87812,0.03646 -0.78853,-0.138768 -1.18579,-0.664127 -0.39727,-0.525358 -0.28442,-1.166626 0.14546,-0.826524 0.84771,-1.14369 0.70309,-0.321916 1.76237,-0.135498 l 0.86928,0.15298 0.0719,-0.408512 q 0.0802,-0.456013 -0.14761,-0.775256 -0.22227,-0.323157 -0.75904,-0.417621 -0.49876,-0.08777 -0.85099,0.104895 -0.34664,0.188756 -0.40349,0.511765 l -0.87877,-0.154652 q 0.097,-0.551016 0.738,-0.937723 0.64104,-0.386707 1.57206,-0.222859 0.83603,0.147128 1.29756,0.669103 0.46153,0.521976 0.30938,1.386501 l -0.42132,2.394068 q -0.0451,0.256508 -0.0534,0.55379 -0.004,0.298118 0.05,0.523007 l -0.0134,0.076 z m -1.33958,-0.931158 q 0.47501,0.0836 0.86357,-0.09289 0.39331,-0.175646 0.5868,-0.440326 l 0.18642,-1.05928 -0.72677,-0.127902 q -1.57229,-0.276701 -1.73949,0.673326 -0.0644,0.365761 0.1375,0.665738 0.2027,0.295227 0.69197,0.38133 z"
           inkscape:connector-curvature="0" />
        <path
           id="path6146"
           style="font-size:9.87777805px;text-align:center;text-anchor:middle;stroke-width:0.26458332"
           d="m 146.89435,86.160331 -2.89381,4.730762 -0.66598,-0.137671 -0.79506,-5.493324 0.89742,0.185514 0.48947,4.184099 2.07526,-3.653918 z"
           inkscape:connector-curvature="0" />
        <path
           id="path6148"
           style="font-size:9.87777805px;text-align:center;text-anchor:middle;stroke-width:0.26458332"
           d="m 150.84173,91.505212 q -0.33712,0.317135 -0.86428,0.51529 -0.52606,0.193459 -1.27729,0.01691 -1.06112,-0.249379 -1.53746,-1.089644 -0.47165,-0.839161 -0.21896,-1.914365 l 0.0463,-0.197199 q 0.19531,-0.831053 0.64672,-1.339328 0.4572,-0.511868 1.03601,-0.697885 0.57991,-0.190712 1.15273,-0.05609 1.08929,0.255999 1.41926,1.086637 0.33576,0.827046 0.0853,1.892859 l -0.0916,0.389703 -3.4369,-0.807722 q -0.14563,0.704 0.1329,1.289687 0.28434,0.582095 0.97923,0.745405 0.46013,0.108138 0.82354,-0.0046 0.36342,-0.112774 0.6768,-0.371077 z m -1.18392,-4.048642 q -0.51647,-0.121379 -0.96158,0.170376 -0.44511,0.291756 -0.69984,0.975072 l 2.54011,0.596964 0.0155,-0.06573 q 0.0863,-0.514807 -0.0729,-1.01795 -0.15452,-0.50204 -0.82124,-0.658729 z"
           inkscape:connector-curvature="0" />
      </g>
    </g>
  </g>
</svg>
